-------------------------------------------------------
Person: Ramsey

What did you accomplish?
    - Started to get machine setup

What do you plan on working on?
    -working on getting local repo setup to start development

What are the obstacles standing in your way?
    -May need help working with git to get started
-------------------------------------------------------
-------------------------------------------------------
Person: Brady

What did you accomplish?
    -Set up initial machine and cloned the repo locally

What do you plan on working on?
    -Going to start building out the UI next

What are the obstacles standing in your way?
    -None yet
-------------------------------------------------------
-------------------------------------------------------
Person: Tony

What did you accomplish?
    -All initial setup is done except setting up scene builder. Repo is pulled down locally

What do you plan on working on?
    -Will start to research the best way to represnt money in java

What are the obstacles standing in your way?
    -None yet
-------------------------------------------------------
-------------------------------------------------------
Person: Robert

What did you accomplish?
    -Working on getting machine setup currently.

What do you plan on working on?
    -Stil needs to finish installing software and connecting to bitbucket and jira

What are the obstacles standing in your way?
    -None yet
-------------------------------------------------------
-------------------------------------------------------
Person: Kevin

What did you accomplish?
    -Setup the bitbucket repo and added tasking to the jira backlog

What do you plan on working on?
    -Figuring out the best way to notify the shop about incoming orders 
     how to implement in java

What are the obstacles standing in your way?
    -None yet
-------------------------------------------------------
-------------------------------------------------------
Person: Jay

What did you accomplish?

What do you plan on working on?

What are the obstacles standing in your way?
-------------------------------------------------------
